birsartanses_north_one = {
	slot = 1
	generic = no
	ai = yes
	potential = {
		tag = F21
	}
	has_country_shield = yes
	
	birsartanses_build_army = {
		icon = mission_assemble_an_army
		required_missions = { }
		#position = 1
		
		trigger = {
			army_size_percentage = 1
			num_of_generals = 1
		}
		
		effect = {
			547 = { add_permanent_claim = ROOT }
			550 = { add_permanent_claim = ROOT }
			545 = { add_permanent_claim = ROOT }
			651 = { add_permanent_claim = ROOT }
			657 = { add_permanent_claim = ROOT }
			658 = { add_permanent_claim = ROOT }
		}
			
	}
	
	birsartanses_annex_overclan = {
		icon = mission_conquer_50_development
		required_missions = { birsartanses_build_army }
		#position = 2
		
		provinces_to_highlight = {
			OR = {
				province_id = 534
				province_id = 535
				area = aqatbahar_area
			}
			NOT = {
				country_or_non_sovereign_subject_holds = ROOT
			}
		}
		
		trigger = {
			534 = { country_or_non_sovereign_subject_holds = ROOT }
			535 = { country_or_non_sovereign_subject_holds = ROOT }
			aqatbahar_area = { 
				type = all
				country_or_non_sovereign_subject_holds = ROOT
			}
		}
		
		effect = {
			530 = { add_permanent_claim = ROOT }
			531 = { add_permanent_claim = ROOT }
			538 = { add_permanent_claim = ROOT }
			539 = { add_permanent_claim = ROOT }
			540 = { add_permanent_claim = ROOT }
			542 = { add_permanent_claim = ROOT }
		}
	}
	
	
	birsartanses_annex_azka = {
		icon = mission_cannons_firing
		required_missions = { birsartanses_annex_overclan }
		#position = 3
		
		provinces_to_highlight = {
			OR = {
				province_id = 530
				province_id = 531
				province_id = 538
				province_id = 539
				province_id = 540
				province_id = 542
			}
			NOT = {
				country_or_non_sovereign_subject_holds = ROOT
			}
		}
		
		trigger = {
			530 = { country_or_non_sovereign_subject_holds = ROOT }
			531 = { country_or_non_sovereign_subject_holds = ROOT }
			538 = { country_or_non_sovereign_subject_holds = ROOT }
			539 = { country_or_non_sovereign_subject_holds = ROOT }
			540 = { country_or_non_sovereign_subject_holds = ROOT }
			542 = { country_or_non_sovereign_subject_holds = ROOT }
		}
		
		effect = {
			ROOT = {
				add_country_modifier = {
					name = "thriving_arms_industry"
					duration = 9125
				}
			}
		}
		
	}
	
	birsartanses_build_fort = {
		icon = mission_great_wall
		required_missions = { birsartanses_annex_azka }
		#position = 4
		
		provinces_to_highlight = {
			province_id = 530
		}
		
		trigger = {
			530 = {
				has_building = fort_15th
				owned_by = ROOT
			}
		}
		
		effect = {
			medbahar_area = {
				limit = {
					NOT = { is_core = ROOT }
					NOT = { owned_by = ROOT }
				}
				add_permanent_claim = ROOT
			}
			
			tungr_mountains_area = {
				limit = {
					NOT = { is_core = ROOT }
					NOT = { owned_by = ROOT }
				}
				add_permanent_claim = ROOT
			}
		}
	}
	
	birsartanses_last_west = {
		icon = mission_build_up_to_force_limit
		required_missions = { birsartanses_build_fort }
		#position = 5
		
		provinces_to_highlight = {
			OR = {
				area = medbahar_area
				area = tungr_mountains_area
			}
			NOT = {
				country_or_non_sovereign_subject_holds = ROOT
			}
		}
		
		trigger = {
			medbahar_area = {
				type = all
				country_or_non_sovereign_subject_holds = ROOT
			}
			tungr_mountains_area = {
				type = all
				country_or_non_sovereign_subject_holds = ROOT
			}
		}
		
		effect = {
			reuyel_area = {
				limit = {
					NOT = { is_core = ROOT }
					NOT = { owned_by = ROOT }
				}
				add_permanent_claim = ROOT
			}
			
			crathanor_area = {
				limit = {
					NOT = { is_core = ROOT }
					NOT = { owned_by = ROOT }
				}
				add_permanent_claim = ROOT
			}
		}
	}
}

birsartanses_north_two = {
	slot = 2
	generic = no
	ai = yes
	potential = {
		tag = F21
	}
	has_country_shield = yes
	
	birsartanses_own_dartaxagerdim = {
		icon = mission_unite_home_region
		required_missions = { birsartanses_build_army }
		position = 2
		
		provinces_to_highlight = {
			OR = {
				province_id = 545
				province_id = 547
				province_id = 550
				province_id = 651
				province_id = 657
				province_id = 658
			}
			NOT = {
				country_or_non_sovereign_subject_holds = ROOT
			}
		}
		
		trigger = {
			545 = { country_or_non_sovereign_subject_holds = ROOT }
			547 = { country_or_non_sovereign_subject_holds = ROOT }
			550 = { country_or_non_sovereign_subject_holds = ROOT }
			651 = { country_or_non_sovereign_subject_holds = ROOT }
			657 = { country_or_non_sovereign_subject_holds = ROOT }
			658 = { country_or_non_sovereign_subject_holds = ROOT }
		}
		
		effect = {
			659 = { add_permanent_claim = ROOT }
			662 = { add_permanent_claim = ROOT }
			harpylen_area = {
				limit = {
					NOT = { is_core = ROOT }
					NOT = { owned_by = ROOT }
				}
				add_permanent_claim = ROOT
			}
		}
	}
	
	birsartanses_own_harpylen = {
		icon = mission_impaled_soldies
		required_missions = { birsartanses_own_dartaxagerdim }
		position = 3
		
		provinces_to_highlight = {
			OR = {
				province_id = 659
				province_id = 662
				area = harpylen_area
			}
			NOT = {
				country_or_non_sovereign_subject_holds = ROOT
			}
		}
		
		trigger = {
			659 = { country_or_non_sovereign_subject_holds = ROOT }
			662 = { country_or_non_sovereign_subject_holds = ROOT }
			harpylen_area = {
				type = all
				country_or_non_sovereign_subject_holds = ROOT
			}
		}
		
		effect = {
			649 = { add_permanent_claim = ROOT }
			650 = { add_permanent_claim = ROOT }
			652 = { add_permanent_claim = ROOT }
			654 = { add_permanent_claim = ROOT }
		}
	}
	
	birsartanses_own_greysheep = {
		icon = mission_italian_condottiere
		required_missions = { birsartanses_own_harpylen }
		position = 4
		
		provinces_to_highlight = {
			OR = {
				province_id = 649
				province_id = 650
				province_id = 652
				province_id = 654
			}
			NOT = {
				country_or_non_sovereign_subject_holds = ROOT
			}
		}
		
		trigger = {
			649 = { country_or_non_sovereign_subject_holds = ROOT }
			650 = { country_or_non_sovereign_subject_holds = ROOT }
			652 = { country_or_non_sovereign_subject_holds = ROOT }
			654 = { country_or_non_sovereign_subject_holds = ROOT }
		}
		
		effect = {
			ROOT = {
				add_country_modifier = {
					name = "birsartanses_subjugate_monsters"
					duration = 7300
				}
			}
		}
	}
	
	birsartanses_bulwark = {
		icon = mission_hands_praying
		required_missions = { birsartanses_own_greysheep }
		position = 5
		
		provinces_to_highlight = {
			province_id = 660
		}
		
		trigger = {
			660 = {
				has_building = fort_15th
				has_building = temple
				owned_by = ROOT
			}
		}
		
		effect = {
			crelyore_ridge_area = {
				limit = {
					NOT = { is_core = ROOT }
					NOT = { owned_by = ROOT }
				}
				add_permanent_claim = ROOT
			}
			arkasul_area = {
				limit = {
					NOT = { is_core = ROOT }
					NOT = { owned_by = ROOT }
				}
				add_permanent_claim = ROOT
			}
		}
	}
}

birsartanses_strong_nation = {
	slot = 3
	generic = no
	ai = yes
	potential = {
		tag = F21
	}
	has_country_shield = yes
	
	birsartanses_loyalty = {
		icon = mission_have_two_subjects
		required_missions = {  }
		#position = 1
		
		trigger = {
			all_subject_country = {
				has_opinion = {
					who = ROOT
					value = 190
				}
			}
		}
		
		effect = {
			ROOT = {
				add_stability = 1
			}
		}
	}
	
	birsartanses_subjugate_nations = {
		icon = mission_alliances
		required_missions = { birsartanses_loyalty }
		#position = 2
		
		trigger = {
			ROOT = {
				num_of_subjects = 2
			}
		}
		
		effect = {
			ROOT = {
				add_country_modifier = {
					name = "birsartanses_vassalize"
					duration = 3650
				}
			}
		}
	}
	
	birsartanses_grand_capital = {
		icon = mission_dominate_home_trade_node
		required_missions = { birsartanses_subjugate_nations }
		#position = 3
		
		trigger = {
			capital_scope = {
				development = 20
			}
		}
		
		effect = {
			ROOT = {
				add_country_modifier = {
					name = "dominant_trade_hub"
					duration = 3650
				}
			}
		}
	}
	
	birsartanses_build_up = {
		icon = mission_colonial
		required_missions = { birsartanses_grand_capital }
		#position = 4
		
		trigger = {
			capital_scope = {
				has_building = university
			}
			ROOT = {
				religious_unity = 0.9
			}
		}
		
		effect = {
			ROOT = {
				add_country_modifier = {
					name = "birsartanses_prestigious"
					duration = 3650
				}
				add_prestige = 30
			}
		}
	}
	
	birsartanses_is_expanding = {
		icon = mission_european_church
		required_missions = { birsartanses_build_up }
		#position = 5
		
		trigger = { grown_by_development = 200 }
		
		effect = {
			ROOT = {
				add_country_modifier = {
					name = "birsartanses_expand"
					duration = 3650
				}
			}
		}
	}
	
}

birsartanses_coast_conquest = {
	slot = 5
	generic = no
	ai = yes
	potential = {
		tag = F21
	}
	has_country_shield = yes
	
	birsartanses_alliances = {
		icon = mission_settlers_north_america
		required_missions = {  }
		#position = 1
		
		trigger = {
			num_of_allies = 2
			calc_true_if = {
				all_ally = {
					has_opinion = {
						who = ROOT
						value = 150
					}
				}
				amount = 2
			}
			stability = 2
		}
		
		effect = {
			areab3_area = {
				limit = {
					NOT = { is_core = ROOT }
					NOT = { owned_by = ROOT }
				}
				add_permanent_claim = ROOT
			}
		}
	}
	
	birsartanses_press_south = {
		icon = mission_teutonic_knights
		required_missions = { birsartanses_alliances }
		#position = 2
		
		provinces_to_highlight = {
			OR = {
				area = areab3_area
			}
			NOT = {
				country_or_non_sovereign_subject_holds = ROOT
			}
		}
		
		trigger = {
			areab3_area = {
				type = all
				country_or_non_sovereign_subject_holds = ROOT
			}
		}
		
		effect = {
			upper_brasan_area = {
				limit = {
					NOT = { is_core = ROOT }
					NOT = { owned_by = ROOT }
				}
				add_permanent_claim = ROOT
			}
			lower_brasan_area = {
				limit = {
					NOT = { is_core = ROOT }
					NOT = { owned_by = ROOT }
				}
				add_permanent_claim = ROOT
			}
			areab4_area = {
				limit = {
					NOT = { is_core = ROOT }
					NOT = { owned_by = ROOT }
				}
				add_permanent_claim = ROOT
			}
		}
	}
	
	birsartanses_hold_south = {
		icon = mission_sea_battles
		required_missions = { birsartanses_press_south }
		#position = 3
		
		provinces_to_highlight = {
			OR = {
				area = upper_brasan_area
				area = lower_brasan_area
				area = areab4_area
			}
			NOT = {
				country_or_non_sovereign_subject_holds = ROOT
			}
		}
		
		trigger = {
			upper_brasan_area = {
				type = all
				country_or_non_sovereign_subject_holds = ROOT
			}
			lower_brasan_area = {
				type = all
				country_or_non_sovereign_subject_holds = ROOT
			}
			areab4_area = {
				type = all
				country_or_non_sovereign_subject_holds = ROOT
			}
		}
		
		effect = {
			add_country_modifier = {
				name = "obedient_subjects"
				duration = 9125
			}
		}
	}
	
	birsartanses_prepare_fleet = {
		icon = mission_establish_high_seas_navy
		required_missions = { birsartanses_hold_south }
		#position = 4
		
		trigger = {
			num_of_light_ship = 10 
			num_of_galley = 30
		}
		
		effect = {
			inner_drolas_area = {
				limit = {
					NOT = { is_core = ROOT }
					NOT = { owned_by = ROOT }
				}
				add_permanent_claim = ROOT
			}
			outer_drolas_area = {
				limit = {
					NOT = { is_core = ROOT }
					NOT = { owned_by = ROOT }
				}
				add_permanent_claim = ROOT
			}
		}
	}
	
	birsartanses_borders_secured = {
		icon = mission_arabian_fort
		required_missions = { birsartanses_prepare_fleet }
		#position = 5
		
		provinces_to_highlight = {
			OR = {
				area = inner_drolas_area
				area = outer_drolas_area
			}
			NOT = {
				country_or_non_sovereign_subject_holds = ROOT
			}
		}
		
		trigger = {
			inner_drolas_area = {
				type = all
				country_or_non_sovereign_subject_holds = ROOT
			}
			outer_drolas_area = {
				type = all
				country_or_non_sovereign_subject_holds = ROOT
			}
		}
		
		effect = {
			areab2_area = {
				limit = {
					NOT = { is_core = ROOT }
					NOT = { owned_by = ROOT }
				}
				add_permanent_claim = ROOT
			}
			areab5_area = {
				limit = {
					NOT = { is_core = ROOT }
					NOT = { owned_by = ROOT }
				}
				add_permanent_claim = ROOT
			}
			areab6_area = {
				limit = {
					NOT = { is_core = ROOT }
					NOT = { owned_by = ROOT }
				}
				add_permanent_claim = ROOT
			}
		}
	}
}