
namespace = flavor_pelodaire

#Dynasty Naming
country_event = {
	id = flavor_pelodaire.1
	title = dynasty_setup.1.t
	desc = dynasty_setup.1.d
	picture = {
		trigger = {
			NOT = { has_dlc = "Rights of Man" }
		}
		picture = COURT_eventPicture
	}
	picture = {
		trigger = {
			has_dlc = "Rights of Man"
		}
		picture = ROYAL_COUPLE_FUTURE_eventPicture
	}
	
	fire_only_once = yes
	is_triggered_only = yes
	
	trigger = {
		tag = H53
	}
	
	#New Dynasty Name after country
	option = {		
		name = "flavor_pelodaire.1.a"
		ai_chance = { factor = 100 }	
		define_heir = {
			dynasty = "ta'Pelodir"
			age = 16
			male = yes
			adm = 1
			dip = 1
			mil = 1
			hide_skills = yes
		}
	}
}