namespace = magic_realm_abjuration


#Abjuration - Menu
country_event = {
	id = magic_realm_abjuration.0
	title = magic_realm_abjuration.0.t	
	desc = magic_realm_abjuration.0.d
	picture = BIG_BOOK_eventPicture
	
	is_triggered_only = yes
	
	option = {	
		name = magic_realm_nospells.0.a
		trigger = {
			AND = {
				NOT = { has_ruler_flag = abjuration_1 }
				NOT = { has_ruler_flag = abjuration_2 }
				NOT = { has_ruler_flag = abjuration_3 }
			}
		}
		ai_chance = {
			factor = 50
		}
		
		country_event = { id = magic_realm.0 days = 0 }
	}
	
	option = {	#1 - Ward
		name = magic_realm_abjuration.1.t
		trigger = {
			has_ruler_flag = abjuration_1
		}
		ai_chance = {
			factor = 50
			modifier = {
				factor = 5
				is_at_war = yes
				NOT = { war_score = 20 }
			}
		}
		
		country_event = { id = magic_realm_abjuration.1 days = 0 }
		
		custom_tooltip = tooltip_option_abjuration_1
	}
	
	option = {	#3 - Magic Field
		name = magic_realm_abjuration.2.t
		trigger = {
			has_ruler_flag = abjuration_3
		}
		ai_chance = {
			factor = 50
			modifier = {
				factor = 5
				is_at_war = yes
				NOT = { war_score = 40 }
			}
			modifier = {
				factor = 0
				any_owned_province = {
					OR = {
						has_province_modifier = magic_realm_abjuration_field_of_freedom
						has_province_modifier = magic_realm_abjuration_field_of_forbiddance
						has_province_modifier = magic_realm_abjuration_field_of_fortification
					}
				}
			}
		}
		
		country_event = { id = magic_realm_abjuration.2 days = 0 }
		
		custom_tooltip = tooltip_option_abjuration_3
	}
	
	option = {
		name = magic_siege.goback
		ai_chance = {
			factor = 5
		}
		
		if = {
			limit = {
				ai = yes	#makes ai back out of casting completely to prevent spam
			}
			add_ruler_modifier = { 
				name = magic_realm_menu_cooldown
				duration = 1825	#prevents them casting for 5 years
				hidden = yes
			}
		}
		else = {
			country_event = { id = magic_realm.0 days = 0 }
		}
	}
}

#Ward
country_event = {
	id = magic_realm_abjuration.1
	title = magic_realm_abjuration.1.t
	desc = magic_realm_abjuration.1.d
	picture = CIVIL_WAR_eventPicture
	
	is_triggered_only = yes
	
	immediate = {
		hidden_effect = {
			 random_owned_province = {
				limit = {
					has_no_ward_province_modifiers = yes
					is_city = yes
				 }
				 save_event_target_as = ward_province_1
			 }
			 random_owned_province = {	#random province
				 limit = {
					 has_no_ward_province_modifiers = yes
					 is_city = yes
					 is_in_capital_area = yes
				 }
				 save_event_target_as = ward_province_1
			 }
			 random_owned_province = {
				 limit = {
					 has_no_ward_province_modifiers = yes
					 is_city = yes
				 }
				 save_event_target_as = ward_province_2
			 }
			 random_owned_province = {	#province with fort
				 limit = {
					 has_no_ward_province_modifiers = yes
					 is_city = yes
					 fort_level = 3
				 }
				 save_event_target_as = ward_province_2
			 }
			 random_owned_province = {
				 limit = {
					 has_no_ward_province_modifiers = yes
					 is_city = yes
				 }
				 save_event_target_as = ward_province_3
			 }
			 random_owned_province = {	#high dev
				 limit = {
					 has_no_ward_province_modifiers = yes
					 is_city = yes
					 development = 12
				 }
				 save_event_target_as = ward_province_3
			 }
		}
	}
	
	option = {
		name = magic_realm_abjuration.1.cost
		trigger = {
			OR = {
				NOT = { adm_power = 30 }
				NOT = { dip_power = 5 }
			}
		}
		country_event = { id = magic_realm_abjuration.0 days = 0 }
	}
	
	option = {	# Create Wards on
		name = magic_realm_abjuration.1.a
		trigger = {
			has_ruler_flag = abjuration_1
			adm_power = 30
			dip_power = 5
		}
		ai_chance = {
			factor = 50
		}
		
		#Costs
		add_adm_power = -30
		add_dip_power = -5
		
		magic_casted_spell = yes
		
		
		if = {
			limit = {
				has_ruler_flag = abjuration_2
			}
			event_target:ward_province_1 = {
				add_province_modifier = {
					name = magic_realm_abjuration_empowered_ward
					duration = 365
				}
			}
		}
		else = {
			event_target:ward_province_1 = {
				add_province_modifier = {
					name = magic_realm_abjuration_ward
					duration = 365
				}
			}
		}
	}
	
	option = {	# Create Wards on
		name = magic_realm_abjuration.1.b
		trigger = {
			has_ruler_flag = abjuration_1
			adm_power = 30
			dip_power = 5
		}
		ai_chance = {
			factor = 50
		}
		
		#Costs
		add_adm_power = -30
		add_dip_power = -5
		
		magic_casted_spell = yes
		
		
		if = {
			limit = {
				has_ruler_flag = abjuration_2
			}
			event_target:ward_province_2 = {
				add_province_modifier = {
					name = magic_realm_abjuration_empowered_ward
					duration = 365
				}
			}
		}
		else = {
			event_target:ward_province_2 = {
				add_province_modifier = {
					name = magic_realm_abjuration_ward
					duration = 365
				}
			}
		}
	}
	
	option = {	# Create Wards on
		name = magic_realm_abjuration.1.c
		trigger = {
			has_ruler_flag = abjuration_1
			adm_power = 30
			dip_power = 5
		}
		ai_chance = {
			factor = 50
		}
		
		#Costs
		add_adm_power = -30
		add_dip_power = -5
		
		magic_casted_spell = yes
		
		
		if = {
			limit = {
				has_ruler_flag = abjuration_2
			}
			event_target:ward_province_3 = {
				add_province_modifier = {
					name = magic_realm_abjuration_empowered_ward
					duration = 365
				}
			}
		}
		else = {
			event_target:ward_province_3 = {
				add_province_modifier = {
					name = magic_realm_abjuration_ward
					duration = 365
				}
			}
		}
	}
	
	option = {	#Option B: Go back
		name = magic_siege.goback
		ai_chance = {
			factor = 5
		}
		if = {
			limit = {
				ai = yes	#makes ai back out of casting completely to prevent spam
			}
			add_ruler_modifier = { 
				name = magic_realm_menu_cooldown
				duration = 1825	#prevents them casting for 5 years
				hidden = yes
			}
		}
		else = {
			country_event = { id = magic_realm_abjuration.0 days = 0 }
		}
	}
	
}

#Magical Field
country_event = {
	id = magic_realm_abjuration.2
	title = magic_realm_abjuration.2.t
	desc = magic_realm_abjuration.2.d
	picture = KING_DOING_GREAT_eventPicture
	
	is_triggered_only = yes
	
	immediate = {
		hidden_effect = { 
			count_provinces_in_capital_area = {
				which = amount_of_capital_area_provinces
			}
		}
	}
	
	option = {	#Unavailable Cooldown
		name = magic_realm_unavailable.0.a
		trigger = {
			any_owned_province = {
				OR = {
					has_province_modifier = magic_realm_abjuration_field_of_freedom
					has_province_modifier = magic_realm_abjuration_field_of_forbiddance
					has_province_modifier = magic_realm_abjuration_field_of_fortification
				}
			}
		}
		custom_tooltip = tooltip_magic_realm_unavailable_cooldown
		country_event = { id = magic_realm_abjuration.0 days = 0 }
	}
	
	option = {	#Field of Freedom
		name = magic_realm_abjuration.2.a
		trigger = {
			has_ruler_flag = abjuration_3
			NOT = {
				any_owned_province = {
					OR = {
						has_province_modifier = magic_realm_abjuration_field_of_freedom
						has_province_modifier = magic_realm_abjuration_field_of_forbiddance
						has_province_modifier = magic_realm_abjuration_field_of_fortification
					}
				}
			}
		}
		ai_chance = {
			factor = 50
		}
		
		#Costs
		if = {
			limit = {
				check_variable = { which = amount_of_capital_area_provinces value = 1 }
				NOT = { check_variable = { which = amount_of_capital_area_provinces value = 5 } }
			}
			add_adm_power = -20
		}
		if = {
			limit = {
				check_variable = { which = amount_of_capital_area_provinces value = 5 }
				NOT = { check_variable = { which = amount_of_capital_area_provinces value = 10 } }
			}
			add_adm_power = -40
		}
		if = {
			limit = {
				check_variable = { which = amount_of_capital_area_provinces value = 10 }
				NOT = { check_variable = { which = amount_of_capital_area_provinces value = 15 } }
			}
			add_adm_power = -60
		}
		if = {
			limit = {
				check_variable = { which = amount_of_capital_area_provinces value = 15 }
				NOT = { check_variable = { which = amount_of_capital_area_provinces value = 20 } }
			}
			add_adm_power = -80
		}
		if = {
			limit = {
				check_variable = { which = amount_of_capital_area_provinces value = 20 }
				NOT = { check_variable = { which = amount_of_capital_area_provinces value = 30 } }
			}
			add_adm_power = -100
		}
		if = {
			limit = {
				check_variable = { which = amount_of_capital_area_provinces value = 30 }
				NOT = { check_variable = { which = amount_of_capital_area_provinces value = 40 } }
			}
			add_adm_power = -120
		}
		if = {
			limit = {
				check_variable = { which = amount_of_capital_area_provinces value = 40 }
				NOT = { check_variable = { which = amount_of_capital_area_provinces value = 50 } }
			}
			add_adm_power = -140
		}
		if = {
			limit = {
				check_variable = { which = amount_of_capital_area_provinces value = 50 }
				NOT = { check_variable = { which = amount_of_capital_area_provinces value = 60 } }
			}
			add_adm_power = -160
		}
		if = {
			limit = {
				check_variable = { which = amount_of_capital_area_provinces value = 60 }
				NOT = { check_variable = { which = amount_of_capital_area_provinces value = 70 } }
			}
			add_adm_power = -180
		}
		if = {
			limit = {
				check_variable = { which = amount_of_capital_area_provinces value = 70 }
				NOT = { check_variable = { which = amount_of_capital_area_provinces value = 80 } }
			}
			add_adm_power = -200
		}
		if = {
			limit = {
				check_variable = { which = amount_of_capital_area_provinces value = 80 }
				NOT = { check_variable = { which = amount_of_capital_area_provinces value = 90 } }
			}
			add_adm_power = -220
		}
		if = {
			limit = {
				check_variable = { which = amount_of_capital_area_provinces value = 90 }
				NOT = { check_variable = { which = amount_of_capital_area_provinces value = 100 } }
			}
			add_adm_power = -240
		}
		if = {
			limit = {
				check_variable = { which = amount_of_capital_area_provinces value = 100 }
				NOT = { check_variable = { which = amount_of_capital_area_provinces value = 200 } }
			}
			add_adm_power = -260
		}
		if = {
			limit = {
				check_variable = { which = amount_of_capital_area_provinces value = 200 }
				NOT = { check_variable = { which = amount_of_capital_area_provinces value = 300 } }
			}
			add_adm_power = -280
		}
		if = {
			limit = {
				check_variable = { which = amount_of_capital_area_provinces value = 300 }
				NOT = { check_variable = { which = amount_of_capital_area_provinces value = 400 } }
			}
			add_adm_power = -300
		}
		if = {
			limit = {
				check_variable = { which = amount_of_capital_area_provinces value = 400 }
				NOT = { check_variable = { which = amount_of_capital_area_provinces value = 500 } }
			}
			add_adm_power = -320
		}
		if = {
			limit = {
				check_variable = { which = amount_of_capital_area_provinces value = 500 }
				NOT = { check_variable = { which = amount_of_capital_area_provinces value = 1000 } }
			}
			add_adm_power = -500
		}
		
		magic_casted_spell = yes
		
		every_owned_province = { 
			limit = { is_in_capital_area = yes }
			add_province_modifier = { 
				name = magic_realm_abjuration_field_of_freedom
				duration = 365
			}
		}
	}
	
	option = {	#Field of Forbiddance
		name = magic_realm_abjuration.2.b
		trigger = {
			has_ruler_flag = abjuration_3
			NOT = {
				any_owned_province = {
					OR = {
						has_province_modifier = magic_realm_abjuration_field_of_freedom
						has_province_modifier = magic_realm_abjuration_field_of_forbiddance
						has_province_modifier = magic_realm_abjuration_field_of_fortification
					}
				}
			}
		}
		ai_chance = {
			factor = 50
		}
		
		#Costs
		if = {
			limit = {
				check_variable = { which = amount_of_capital_area_provinces value = 1 }
				NOT = { check_variable = { which = amount_of_capital_area_provinces value = 5 } }
			}
			add_adm_power = -20
		}
		if = {
			limit = {
				check_variable = { which = amount_of_capital_area_provinces value = 5 }
				NOT = { check_variable = { which = amount_of_capital_area_provinces value = 10 } }
			}
			add_adm_power = -40
		}
		if = {
			limit = {
				check_variable = { which = amount_of_capital_area_provinces value = 10 }
				NOT = { check_variable = { which = amount_of_capital_area_provinces value = 15 } }
			}
			add_adm_power = -60
		}
		if = {
			limit = {
				check_variable = { which = amount_of_capital_area_provinces value = 15 }
				NOT = { check_variable = { which = amount_of_capital_area_provinces value = 20 } }
			}
			add_adm_power = -80
		}
		if = {
			limit = {
				check_variable = { which = amount_of_capital_area_provinces value = 20 }
				NOT = { check_variable = { which = amount_of_capital_area_provinces value = 30 } }
			}
			add_adm_power = -100
		}
		if = {
			limit = {
				check_variable = { which = amount_of_capital_area_provinces value = 30 }
				NOT = { check_variable = { which = amount_of_capital_area_provinces value = 40 } }
			}
			add_adm_power = -120
		}
		if = {
			limit = {
				check_variable = { which = amount_of_capital_area_provinces value = 40 }
				NOT = { check_variable = { which = amount_of_capital_area_provinces value = 50 } }
			}
			add_adm_power = -140
		}
		if = {
			limit = {
				check_variable = { which = amount_of_capital_area_provinces value = 50 }
				NOT = { check_variable = { which = amount_of_capital_area_provinces value = 60 } }
			}
			add_adm_power = -160
		}
		if = {
			limit = {
				check_variable = { which = amount_of_capital_area_provinces value = 60 }
				NOT = { check_variable = { which = amount_of_capital_area_provinces value = 70 } }
			}
			add_adm_power = -180
		}
		if = {
			limit = {
				check_variable = { which = amount_of_capital_area_provinces value = 70 }
				NOT = { check_variable = { which = amount_of_capital_area_provinces value = 80 } }
			}
			add_adm_power = -200
		}
		if = {
			limit = {
				check_variable = { which = amount_of_capital_area_provinces value = 80 }
				NOT = { check_variable = { which = amount_of_capital_area_provinces value = 90 } }
			}
			add_adm_power = -220
		}
		if = {
			limit = {
				check_variable = { which = amount_of_capital_area_provinces value = 90 }
				NOT = { check_variable = { which = amount_of_capital_area_provinces value = 100 } }
			}
			add_adm_power = -240
		}
		if = {
			limit = {
				check_variable = { which = amount_of_capital_area_provinces value = 100 }
				NOT = { check_variable = { which = amount_of_capital_area_provinces value = 200 } }
			}
			add_adm_power = -260
		}
		if = {
			limit = {
				check_variable = { which = amount_of_capital_area_provinces value = 200 }
				NOT = { check_variable = { which = amount_of_capital_area_provinces value = 300 } }
			}
			add_adm_power = -280
		}
		if = {
			limit = {
				check_variable = { which = amount_of_capital_area_provinces value = 300 }
				NOT = { check_variable = { which = amount_of_capital_area_provinces value = 400 } }
			}
			add_adm_power = -300
		}
		if = {
			limit = {
				check_variable = { which = amount_of_capital_area_provinces value = 400 }
				NOT = { check_variable = { which = amount_of_capital_area_provinces value = 500 } }
			}
			add_adm_power = -320
		}
		if = {
			limit = {
				check_variable = { which = amount_of_capital_area_provinces value = 500 }
				NOT = { check_variable = { which = amount_of_capital_area_provinces value = 1000 } }
			}
			add_adm_power = -500
		}
		
		magic_casted_spell = yes
		
		every_owned_province = { 
			limit = { is_in_capital_area = yes }
			add_province_modifier = { 
				name = magic_realm_abjuration_field_of_forbiddance
				duration = 365
			}
		}
	}

	option = {	#Field of Fortification
		name = magic_realm_abjuration.2.c
		trigger = {
			has_ruler_flag = abjuration_3
			NOT = {
				any_owned_province = {
					OR = {
						has_province_modifier = magic_realm_abjuration_field_of_freedom
						has_province_modifier = magic_realm_abjuration_field_of_forbiddance
						has_province_modifier = magic_realm_abjuration_field_of_fortification
					}
				}
			}
		}
		ai_chance = {
			factor = 50
		}
		
		#Costs
		if = {
			limit = {
				check_variable = { which = amount_of_capital_area_provinces value = 1 }
				NOT = { check_variable = { which = amount_of_capital_area_provinces value = 5 } }
			}
			add_adm_power = -20
		}
		if = {
			limit = {
				check_variable = { which = amount_of_capital_area_provinces value = 5 }
				NOT = { check_variable = { which = amount_of_capital_area_provinces value = 10 } }
			}
			add_adm_power = -40
		}
		if = {
			limit = {
				check_variable = { which = amount_of_capital_area_provinces value = 10 }
				NOT = { check_variable = { which = amount_of_capital_area_provinces value = 15 } }
			}
			add_adm_power = -60
		}
		if = {
			limit = {
				check_variable = { which = amount_of_capital_area_provinces value = 15 }
				NOT = { check_variable = { which = amount_of_capital_area_provinces value = 20 } }
			}
			add_adm_power = -80
		}
		if = {
			limit = {
				check_variable = { which = amount_of_capital_area_provinces value = 20 }
				NOT = { check_variable = { which = amount_of_capital_area_provinces value = 30 } }
			}
			add_adm_power = -100
		}
		if = {
			limit = {
				check_variable = { which = amount_of_capital_area_provinces value = 30 }
				NOT = { check_variable = { which = amount_of_capital_area_provinces value = 40 } }
			}
			add_adm_power = -120
		}
		if = {
			limit = {
				check_variable = { which = amount_of_capital_area_provinces value = 40 }
				NOT = { check_variable = { which = amount_of_capital_area_provinces value = 50 } }
			}
			add_adm_power = -140
		}
		if = {
			limit = {
				check_variable = { which = amount_of_capital_area_provinces value = 50 }
				NOT = { check_variable = { which = amount_of_capital_area_provinces value = 60 } }
			}
			add_adm_power = -160
		}
		if = {
			limit = {
				check_variable = { which = amount_of_capital_area_provinces value = 60 }
				NOT = { check_variable = { which = amount_of_capital_area_provinces value = 70 } }
			}
			add_adm_power = -180
		}
		if = {
			limit = {
				check_variable = { which = amount_of_capital_area_provinces value = 70 }
				NOT = { check_variable = { which = amount_of_capital_area_provinces value = 80 } }
			}
			add_adm_power = -200
		}
		if = {
			limit = {
				check_variable = { which = amount_of_capital_area_provinces value = 80 }
				NOT = { check_variable = { which = amount_of_capital_area_provinces value = 90 } }
			}
			add_adm_power = -220
		}
		if = {
			limit = {
				check_variable = { which = amount_of_capital_area_provinces value = 90 }
				NOT = { check_variable = { which = amount_of_capital_area_provinces value = 100 } }
			}
			add_adm_power = -240
		}
		if = {
			limit = {
				check_variable = { which = amount_of_capital_area_provinces value = 100 }
				NOT = { check_variable = { which = amount_of_capital_area_provinces value = 200 } }
			}
			add_adm_power = -260
		}
		if = {
			limit = {
				check_variable = { which = amount_of_capital_area_provinces value = 200 }
				NOT = { check_variable = { which = amount_of_capital_area_provinces value = 300 } }
			}
			add_adm_power = -280
		}
		if = {
			limit = {
				check_variable = { which = amount_of_capital_area_provinces value = 300 }
				NOT = { check_variable = { which = amount_of_capital_area_provinces value = 400 } }
			}
			add_adm_power = -300
		}
		if = {
			limit = {
				check_variable = { which = amount_of_capital_area_provinces value = 400 }
				NOT = { check_variable = { which = amount_of_capital_area_provinces value = 500 } }
			}
			add_adm_power = -320
		}
		if = {
			limit = {
				check_variable = { which = amount_of_capital_area_provinces value = 500 }
				NOT = { check_variable = { which = amount_of_capital_area_provinces value = 1000 } }
			}
			add_adm_power = -500
		}
		
		magic_casted_spell = yes
		
		every_owned_province = { 
			limit = { is_in_capital_area = yes }
			add_province_modifier = { 
				name = magic_realm_abjuration_field_of_fortification
				duration = 365
			}
		}
	}
	
	option = {	#Option B: Go back
		name = magic_siege.goback
		ai_chance = {
			factor = 5
		}
		if = {
			limit = {
				ai = yes	#makes ai back out of casting completely to prevent spam
			}
			add_ruler_modifier = { 
				name = magic_realm_menu_cooldown
				duration = 1825	#prevents them casting for 5 years
				hidden = yes
			}
		}
		else = {
			country_event = { id = magic_realm_abjuration.0 days = 0 }
		}
	}
	
}