namespace = orcish_tolerance_events

country_event = {
	id = orcish_tolerance_events.1
	title = orcish_tolerance_events.1.t
	# Reason for property damage:
	desc = {	# Spokesperson insult Orcs
		trigger = { NOT = { has_country_flag = orc_local_conflict_2 } }
		desc = orcish_tolerance_events.1.d
	}
	desc = {	# Barfight
		trigger = { has_country_flag = orc_local_conflict_2 }
		desc = orcish_tolerance_events.1.db
	}
	desc = {	# Raid
		trigger = { has_country_flag = orc_local_conflict_3 }
		desc = orcish_tolerance_events.1.dc
	}
	picture = BORDER_TENSION_eventPicture
	
	is_triggered_only = yes
	
	trigger = {
		NOT = { culture_group = orcish }	# I mean I'm sure orcs have to take care of this as well
		any_owned_province = {
			NOT = { has_province_modifier = orcish_harsh_punishment_prov }
			NOT = { has_province_modifier = orcish_normal_punishment_prov }
			has_orcish_minority_trigger = yes
		}
	}
	
	mean_time_to_happen = {
		days = 1
	}
	
	immediate = {
		hidden_effect = {
			random_list = {
				60 = { }
				20 = { set_country_flag = orc_local_conflict_2 }
				20 = { set_country_flag = orc_local_conflict_3 }
			}
			random_owned_province = {
				limit = {
					NOT = { has_province_modifier = orcish_harsh_punishment_prov }
					NOT = { has_province_modifier = orcish_normal_punishment_prov }
					has_orcish_minority_trigger = yes
				}
				save_event_target_as = orcish_causing_havoc_province
			}
			random_owned_province = {
				limit = {
					NOT = { has_province_modifier = orcish_harsh_punishment_prov }
					NOT = { has_province_modifier = orcish_normal_punishment_prov }
					has_orcish_minority_trigger = yes
					OR = {
						has_estate = estate_burghers
						has_estate = estate_nobles
						has_estate = estate_church
					}
				}
				save_event_target_as = orcish_causing_havoc_province
			}
			event_target:orcish_causing_havoc_province = {
				add_devastation = 10
				if = {
					limit = {
						owner = {
							NOT = { has_country_flag = orc_loot_burghers }
							NOT = { has_country_flag = orc_loot_church }
							NOT = { has_country_flag = orc_loot_nobles }
						}
						has_estate = no
					}
					owner = {
						random_list = {
							40 = { set_country_flag = orc_loot_burghers }
							30 = { set_country_flag = orc_loot_church }
							30 = { set_country_flag = orc_loot_nobles }
						}
					}
				}
				if = {
					limit = {
						owner = {
							NOT = { has_country_flag = orc_loot_burghers }
							NOT = { has_country_flag = orc_loot_church }
							NOT = { has_country_flag = orc_loot_nobles }
						}
						has_estate = estate_nobles
					}
					owner = { set_country_flag = orc_loot_nobles }
				}
				if = {
					limit = {
						owner = {
							NOT = { has_country_flag = orc_loot_burghers }
							NOT = { has_country_flag = orc_loot_church }
							NOT = { has_country_flag = orc_loot_nobles }
						}
						has_estate = estate_church
					}
					owner = { set_country_flag = orc_loot_church }
				}
				if = {
					limit = {
						owner = {
							NOT = { has_country_flag = orc_loot_burghers }
							NOT = { has_country_flag = orc_loot_church }
							NOT = { has_country_flag = orc_loot_nobles }
						}
						OR = {
							has_estate = estate_burghers
							AND = {
								has_estate = yes
								NOT = {
									has_estate = estate_burghers
									has_estate = estate_church
									has_estate = estate_nobles
								}
							}
						}
					}
					owner = { set_country_flag = orc_loot_burghers }
				}
			}
		}
	}
	
	after = {
		hidden_effect = {
			clr_country_flag = orc_loot_burghers
			clr_country_flag = orc_loot_nobles
			clr_country_flag = orc_loot_church
			clr_country_flag = orc_local_conflict_2
			clr_country_flag = orc_local_conflict_3
		}
	}
	
	option = {	# Punish them harshly
		name = orcish_tolerance_events.1.a
		ai_chance = {
			factor = 50
			modifier = {
				factor = 1.5
				has_country_flag = orc_loot_church
				has_dlc = "The Cossacks"
				NOT = {
					estate_loyalty = {
						estate = estate_church
						loyalty = 40
					}
				}
			}
			modifier = {
				factor = 1.5
				has_country_flag = orc_loot_nobles
				has_dlc = "The Cossacks"
				NOT = {
					estate_loyalty = {
						estate = estate_nobles
						loyalty = 40
					}
				}
			}
			modifier = {
				factor = 1.5
				has_country_flag = orc_loot_burghers
				has_dlc = "The Cossacks"
				NOT = {
					estate_loyalty = {
						estate = estate_burghers
						loyalty = 40
					}
				}
			}
			modifier = {
				factor = 0.5
				ai_equal_to_wanted_tolerance_orcish = yes
			}
			modifier = {
				factor = 0.1
				ai_lower_than_wanted_tolerance_orcish = yes
			}
		}
		add_prestige = 5
		add_mil_power = -20
		small_decrease_of_orcish_tolerance_effect = yes
		event_target:orcish_causing_havoc_province = {
			add_province_modifier = {
				name = orcish_harsh_punishment_prov
				duration = 3650
			}
		}
		trigger_switch = {
			on_trigger = has_country_flag
			orc_loot_burghers = {
				if = {
					limit = {
						has_estate = estate_burghers
					}
					add_estate_loyalty = {
						estate = estate_burghers
						loyalty = 5
					}
				}
			}
			orc_loot_church = {
				if = {
					limit = {
						has_estate = estate_church
					}
					add_estate_loyalty = {
						estate = estate_church
						loyalty = 5
					}
				}
			}
			orc_loot_nobles = {
				if = {
					limit = {
						has_estate = estate_nobles
					}
					add_estate_loyalty = {
						estate = estate_nobles
						loyalty = 5
					}
				}
			}
		}
	}
	
	option = {	# Just punish them moderately
		name = orcish_tolerance_events.1.b
		ai_chance = {
			factor = 50
		}
		add_mil_power = -10
		event_target:orcish_causing_havoc_province = {
			add_province_modifier = {
				name = orcish_normal_punishment_prov
				duration = 3650
			}
		}
	}
	
	option = {	# It was clearly out of their control
		name = orcish_tolerance_events.1.c
		ai_chance = {
			factor = 50
			modifier = {
				factor = 0.5
				has_country_flag = orc_loot_church
				has_dlc = "The Cossacks"
				NOT = {
					estate_loyalty = {
						estate = estate_church
						loyalty = 40
					}
				}
			}
			modifier = {
				factor = 0.5
				has_country_flag = orc_loot_nobles
				has_dlc = "The Cossacks"
				NOT = {
					estate_loyalty = {
						estate = estate_nobles
						loyalty = 40
					}
				}
			}
			modifier = {
				factor = 0.5
				has_country_flag = orc_loot_burghers
				has_dlc = "The Cossacks"
				NOT = {
					estate_loyalty = {
						estate = estate_burghers
						loyalty = 40
					}
				}
			}
			modifier = {
				factor = 0.5
				ai_equal_to_wanted_tolerance_orcish = yes
			}
			modifier = {
				factor = 0.1
				ai_higher_than_wanted_tolerance_orcish = yes
			}
		}
		add_prestige = -10
		small_increase_of_orcish_tolerance_effect = yes
		trigger_switch = {
			on_trigger = has_country_flag
			orc_loot_burghers = {
				if = {
					limit = {
						has_estate = estate_burghers
					}
					add_estate_loyalty = {
						estate = estate_burghers
						loyalty = -10
					}
				}
			}
			orc_loot_church = {
				if = {
					limit = {
						has_estate = estate_church
					}
					add_estate_loyalty = {
						estate = estate_church
						loyalty = -10
					}
				}
			}
			orc_loot_nobles = {
				if = {
					limit = {
						has_estate = estate_nobles
					}
					add_estate_loyalty = {
						estate = estate_nobles
						loyalty = -10
					}
				}
			}
		}
	}
	
	option = {	# Punish them and their relatives harshly
		name = orcish_tolerance_events.1.e
		trigger = { ruler_has_personality = cruel_personality }
		required_personality = cruel_personality
		highlight = yes
		ai_chance = {
			factor = 100
			modifier = {
				factor = 1.5
				has_country_flag = orc_loot_church
				has_dlc = "The Cossacks"
				NOT = {
					estate_loyalty = {
						estate = estate_church
						loyalty = 40
					}
				}
			}
			modifier = {
				factor = 1.5
				has_country_flag = orc_loot_nobles
				has_dlc = "The Cossacks"
				NOT = {
					estate_loyalty = {
						estate = estate_nobles
						loyalty = 40
					}
				}
			}
			modifier = {
				factor = 1.5
				has_country_flag = orc_loot_burghers
				has_dlc = "The Cossacks"
				NOT = {
					estate_loyalty = {
						estate = estate_burghers
						loyalty = 40
					}
				}
			}
			modifier = {
				factor = 0.5
				ai_equal_to_wanted_tolerance_orcish = yes
			}
			modifier = {
				factor = 0.1
				ai_lower_than_wanted_tolerance_orcish = yes
			}
		}
		add_prestige = 10
		add_mil_power = -25
		small_decrease_of_orcish_tolerance_effect = yes
		event_target:orcish_causing_havoc_province = {
			area = {
				limit = {
					NOT = { has_province_modifier = orcish_harsh_punishment_prov }
					NOT = { has_province_modifier = orcish_normal_punishment_prov }
					OR = {
						has_orcish_minority_trigger = yes
						culture_group = orcish
					}
				}
				add_province_modifier = {
					name = orcish_harsh_punishment_prov
					duration = 1825
				}
			}
		}
		trigger_switch = {
			on_trigger = has_country_flag
			orc_loot_burghers = {
				if = {
					limit = {
						has_estate = estate_burghers
					}
					add_estate_loyalty = {
						estate = estate_burghers
						loyalty = 10
					}
				}
			}
			orc_loot_church = {
				if = {
					limit = {
						has_estate = estate_church
					}
					add_estate_loyalty = {
						estate = estate_church
						loyalty = 10
					}
				}
			}
			orc_loot_nobles = {
				if = {
					limit = {
						has_estate = estate_nobles
					}
					add_estate_loyalty = {
						estate = estate_nobles
						loyalty = 10
					}
				}
			}
		}
	}
}

country_event = {
	id = orcish_tolerance_events.2
	title = orcish_tolerance_events.2.t
	desc = orcish_tolerance_events.2.d
	picture = BORDER_TENSION_eventPicture
	
	trigger = {
		NOT = { culture_group = orcish }
		any_owned_province = {
			NOT = { has_province_modifier = orcish_bandits_punished }
			NOT = { has_province_modifier = orcish_bandits_run_free }
			NOT = { has_province_modifier = orcish_bandits_run_free_gov_support }
			has_orcish_minority_trigger = yes
		}
	}
	
	is_triggered_only = yes
	
	mean_time_to_happen = {
		days = 1
	}
	
	immediate = {
		hidden_effect = {
			random_owned_province = {
				limit = {
					NOT = { has_province_modifier = orcish_bandits_punished }
					NOT = { has_province_modifier = orcish_bandits_run_free }
					NOT = { has_province_modifier = orcish_bandits_run_free_gov_support }
					has_orcish_minority_trigger = yes
				}
				save_event_target_as = orcish_bandit_province
			}
		}
	}
	
	option = {		# This is an issue we can ignore
		name = orcish_tolerance_events.2.a
		ai_chance = {
			factor = 50
			modifier = {
				factor = 0.8
				NOT = { prestige = 0 }
			}
			modifier = {
				factor = 0.5
				has_dlc = "The Cossacks"
				has_estate = estate_nobles
				NOT = {
					estate_loyalty = {
						estate = estate_nobles
						loyalty = 40
					}
				}
			}
			modifier = {
				factor = 0.5
				has_dlc = "The Cossacks"
				has_estate = estate_burghers
				NOT = {
					estate_loyalty = {
						estate = estate_burghers
						loyalty = 40
					}
				}
			}
		}
		add_prestige = -5
		if = {
			limit = { has_estate = estate_nobles }
			add_estate_loyalty = {
				estate = estate_nobles
				loyalty = -10
			}
		}
		if = {
			limit = { has_estate = estate_burghers }
			add_estate_loyalty = {
				estate = estate_burghers
				loyalty = -10
			}
		}
		event_target:orcish_bandit_province = {
			area = {
				limit = {
					owned_by = ROOT
					NOT = { has_province_modifier = orcish_bandits_punished }
					NOT = { has_province_modifier = orcish_bandits_run_free }
					NOT = { has_province_modifier = orcish_bandits_run_free_gov_support }
					has_orcish_minority_trigger = yes
				}
				add_province_modifier = {
					name = orcish_bandits_run_free
					duration = 1825
				}
			}
		}
	}
	option = {	# We need to punish them!
		name = orcish_tolerance_events.2.b
		ai_chance = {
			factor = 50
			modifier = {
				factor = 0.5
				ai_equal_to_wanted_tolerance_orcish = yes
			}
			modifier = {
				factor = 0.1
				ai_lower_than_wanted_tolerance_orcish = yes
			}
		}
		add_mil_power = -10
		if = {
			limit = {
				max_manpower = 20
			}
			add_manpower = -1.5
		}
		if = {
			limit = {
				NOT = { max_manpower = 20 }
			}
			add_yearly_manpower = -0.75
		}
		if = {
			limit = { has_estate = estate_nobles }
			add_estate_loyalty = {
				estate = estate_nobles
				loyalty = 5
			}
		}
		if = {
			limit = { has_estate = estate_burghers }
			add_estate_loyalty = {
				estate = estate_burghers
				loyalty = 5
			}
		}
		small_decrease_of_orcish_tolerance_effect = yes
		event_target:orcish_bandit_province = {
			area = {
				limit = {
					owned_by = ROOT
					NOT = { has_province_modifier = orcish_bandits_punished }
					NOT = { has_province_modifier = orcish_bandits_run_free }
					NOT = { has_province_modifier = orcish_bandits_run_free_gov_support }
					has_orcish_minority_trigger = yes
				}
				add_province_modifier = {
					name = orcish_bandits_punished
					duration = 1825
				}
			}
		}
	}
	option = {		# Hire them to collect our taxes
		name = orcish_tolerance_events.2.c
		trigger = {
			NOT = { has_country_modifier = minority_bandits_run_free_gov_support_global }
			ruler_has_personality = embezzler_personality
		}
		required_personality = embezzler_personality
		highlight = yes
		ai_chance = {
			factor = 100
			modifier = {
				factor = 0.8
				NOT = { prestige = 0 }
			}
			modifier = {
				factor = 0.5
				has_dlc = "The Cossacks"
				has_estate = estate_nobles
				NOT = {
					estate_loyalty = {
						estate = estate_nobles
						loyalty = 45
					}
				}
			}
			modifier = {
				factor = 0.5
				has_dlc = "The Cossacks"
				has_estate = estate_burghers
				NOT = {
					estate_loyalty = {
						estate = estate_burghers
						loyalty = 45
					}
				}
			}
		}
		add_prestige = -10
		if = {
			limit = { has_estate = estate_nobles }
			add_estate_loyalty = {
				estate = estate_nobles
				loyalty = -15
			}
		}
		if = {
			limit = { has_estate = estate_burghers }
			add_estate_loyalty = {
				estate = estate_burghers
				loyalty = -15
			}
		}
		add_country_modifier = {
			name = minority_bandits_run_free_gov_support_global
			duration = 1095
		}
		event_target:orcish_bandit_province = {
			area = {
				limit = {
					owned_by = ROOT
					NOT = { has_province_modifier = orcish_bandits_punished }
					NOT = { has_province_modifier = orcish_bandits_run_free }
					NOT = { has_province_modifier = orcish_bandits_run_free_gov_support }
				}
				add_province_modifier = {
					name = orcish_bandits_run_free_gov_support
					duration = 1825
				}
			}
		}
	}
}

country_event = {
	id = orcish_tolerance_events.3
	title = orcish_tolerance_events.3.t
	desc = orcish_tolerance_events.3.d
	picture = MILITARY_CAMP_eventPicture
	
	trigger = {
		NOT = { culture_group = orcish }
		any_owned_province = {
			NOT = { has_province_modifier = orcish_recruitment_province }
			NOT = { has_province_modifier = orcish_angry_about_assumptions }
			has_orcish_minority_trigger = yes
		}
		is_at_war = yes
	}
	
	is_triggered_only = yes
	
	mean_time_to_happen = {
		days = 1
	}
	
	immediate = {
		hidden_effect = {
			random_owned_province = {
				limit = {
					NOT = { has_province_modifier = orcish_recruitment_province }
					NOT = { has_province_modifier = orcish_angry_about_assumptions }
					has_orcish_minority_trigger = yes
				}
				save_event_target_as = orcish_recruitment_province
			}
			random_owned_province = {
				limit = {
					NOT = { has_province_modifier = orcish_recruitment_province }
					NOT = { has_province_modifier = orcish_angry_about_assumptions }
					has_orcish_minority_trigger = yes
					is_in_capital_area = yes
				}
				save_event_target_as = orcish_recruitment_province
			}
		}
	}
	
	option = {	# Recruit them
		name = orcish_tolerance_events.3.a
		ai_chance = {
			factor = 50
			modifier = {
				factor = 0.5
				ai_equal_to_wanted_tolerance_orcish = yes
			}
			modifier = {
				factor = 0.1
				ai_higher_than_wanted_tolerance_orcish = yes
			}
		}
		add_years_of_income = -0.05
		if = {
			limit = {
				max_manpower = 20
			}
			add_manpower = 1
		}
		if = {
			limit = {
				NOT = { max_manpower = 20 }
			}
			add_yearly_manpower = 0.5
		}
		small_increase_of_orcish_tolerance_effect = yes
		event_target:orcish_recruitment_province = {
			area = {
				limit = {
					owned_by = ROOT
					NOT = { has_province_modifier = orcish_recruitment_province }
					NOT = { has_province_modifier = orcish_angry_about_assumptions }
					has_orcish_minority_trigger = yes
				}
				add_province_modifier = {
					name = orcish_recruitment_province
					duration = 1825
				}
			}
		}
	}
	option = {	# We can't afford their services
		name = orcish_tolerance_events.3.b
		ai_chance = {
			factor = 50
		}
	}
	option = {	# It'd like hiring our enemies to tell us of their plans...
		name = orcish_tolerance_events.3.c
		ai_chance = {
			factor = 50
			modifier = {
				factor = 0.5
				ai_equal_to_wanted_tolerance_orcish = yes
			}
			modifier = {
				factor = 0.1
				ai_lower_than_wanted_tolerance_orcish = yes
			}
		}
		add_prestige = 5
		small_decrease_of_orcish_tolerance_effect = yes
		event_target:orcish_recruitment_province = {
			area = {
				limit = {
					owned_by = ROOT
					NOT = { has_province_modifier = orcish_recruitment_province }
					NOT = { has_province_modifier = orcish_angry_about_assumptions }
					has_orcish_minority_trigger = yes
				}
				add_province_modifier = {
					name = orcish_angry_about_assumptions
					duration = 1825
				}
			}
		}
	}
}